[
     {
        "name":"font-awesome",
        "version":4,
        "use":"componente para insertar iconos",
        "example":"<global-font-awesome-v4 [title]='user' [size]='4'></global-font-awesome-v4>",
        "instructions":"",
        "packs":"npm i gull font-awesome ngx-toast --save"
    },
    {
        "name":"font-awesome",
        "version":4,
        "use":"componente para insertar iconos",
        "example":"<global-font-awesome-v4 [title]='user' [size]='4'></global-font-awesome-v4>",
        "instructions":"",
        "packs":"npm i gull font-awesome ngx-toast --save"
    }
]